D:\Research_Q32019\PictureUpload-master\IC6.Xamarin.WebApi
--output-path=obj\Debug\netcoreapp2.0\
--application-name=IC6.Xamarin.WebApi
--content-root=D:\Research_Q32019\PictureUpload-master\IC6.Xamarin.WebApi
--file=
